"nombre","website","tel1","dir"
"Lumaca","N/A","N/A","N/A"
"Tuasa","N/A","N/A","N/A"
"Coopana","N/A","N/A","N/A"
"Autotransportes Desamparados","N/A","N/A","N/A"
"Pulmitan de Liberia","N/A","N/A","N/A"
"Deldú","N/A","N/A","N/A"
"La400","N/A","N/A","N/A"
"RapidosHeredianos","N/A","N/A","N/A"
"Caribeños","N/A","N/A","N/A"
"Coesa","N/A","N/A","N/A"
"MUSOC","N/A",2222-2422,"N/A"
"Autotransportes Moravia","N/A","229-3092","N/A"
"Coopemoravia R.L","N/A","2229-4095","N/A"
"Transportes Guilial","N/A","2226-5078","N/A"
"Compañia de Inversiones La Tapachula","N/A",2283-8007,"N/A"
"Metrocoop","N/A",2254-5256,"N/A"
"Transportes Docientos Cinco","N/A","2254-5256","N/A"
"Autotransportes Sabana Cementerio","N/A","2226-8626","N/A"