"POINT(9.890134,-84.08884599999999)","Concepción de Alajuelita"
"POINT(9.890201,-84.08142399999997)","Estación de Buses San Rafael Abajo"
"POINT(9.894663,-84.049262)","Terminal de Dos Cercas"
"POINT(9.902106,-84.073399)","Terminal de Buses Loma Linda - Paso Ancho"
"POINT(9.908698,-84.06419599999998)","Periferica Parque Los Sauces L1"
"POINT(9.908825,-84.064797)","Periferica Parque Los Sauces"
"POINT(9.909053,-84.13268099999999)","Parada de Buses de Santa Teresa e Intersectorial Escazú"
"POINT(9.911708,-84.063177)","Periferica El Electrico L1"
"POINT(9.91532,-84.05991)","Terminal de Buses de Quesada Duran"
"POINT(9.916287,-84.056354)","Terminal de Buses de Zapote"
"POINT(9.922744,-84.11901799999998)","Terminal"
"POINT(9.923088,-84.04915199999999)","Barrio Pinto"
"POINT(9.923529,-84.07966599999997)","MUSOC"
"POINT(9.926015,-84.11244699999997)","Terminal de Buses Hatillo 8"
"POINT(9.927639,-84.0781)","Parada de buses de Hewlett Packard"
"POINT(9.928687,-84.07700599999998)","Terminal San Juan Sur"
"POINT(9.928769,-84.08602100000002)","Estación de Buses San José - Puntarenas"
"POINT(9.9288,-84.07630899999998)","Parada de Acosta y San Gabriel"
"POINT(9.929199,-84.00417400000003)","Parada de Autobuses Concepción - Tres Rios"
"POINT(9.930607,-84.07610499999998)","Parada de Buses de Aserri"
"POINT(9.930631,-84.04530799999998)","Parada Muñoz y Nanne"
"POINT(9.931365,-84.07753000000002)","Parabús Barrio Luján"
"POINT(9.93174,-84.06579799999997)","Parada La California"
"POINT(9.931854,-84.06281899999999)","Parada Línea del Tren"
"POINT(9.932085,-84.071438)","Parada del Museo"
"POINT(9.932195,-84.04231199999998)","Parada Buses de U Latina"
"POINT(9.932282,-84.07664299999999)","Parada de buses de Zapote"
"POINT(9.932802,-84.05692599999998)","Paradas del Mall San Pedro"
"POINT(9.932953,-84.075738)","Parada de Villas de Ayarco"
"POINT(9.933334,-84.10880900000001)","Parada de Buses Escazú por Calle Vieja"
"POINT(9.93341,-84.08130599999998)","Parada de Quesada Duran"
"POINT(9.933722,-84.084361)","Parada del Parque la Marced"
"POINT(9.934087,-84.084494)","Terminal TUASA"
"POINT(9.934372,-84.039558)","Parada Residencial Lydia"
"POINT(9.934612,-84.05197199999998)","Parada UCR - Calle Blancos"
"POINT(9.935236,-84.05122499999999)","Parada de Desamparados y Aserrí"
"POINT(9.935358,-84.04770500000001)","Parada Calle Masis"
"POINT(9.935878,-84.03630699999997)","Entrada a La Flor"
"POINT(9.936114,-84.08606199999997)","Estación de Buses la Coca Cola"
"POINT(9.936554,-84.078734)","Buses Los Sitios - La Isla"
"POINT(9.936902,-84.085354)","Estacion de Buses de Santa Ana"
"POINT(9.937323,-84.081368)","Paradas de buses de León XIII"
"POINT(9.937331,-84.085107)","Bus Station frente Hotel Cocori"
"POINT(9.937788,-84.08497799999998)","Empresa Alfaro"
"POINT(9.938009,-84.07860399999998)","Terminal de Buses Rápidos Heredianos"
"POINT(9.938553,-84.03377499999999)","Parada del Sindy"
"POINT(9.938892,-84.083868)","Transportes ARSA"
"POINT(9.938921,-84.05242399999997)","Parada Facultad de Letras"
"POINT(9.939154,-84.08396199999999)","Terminal Monteverde"
"POINT(9.939256,-84.083711)","Terminal San Carlos"
"POINT(9.939526,-84.083551)","Terminal Deldu"
"POINT(9.940868,-84.04732899999999)","Parade de Buses UNED"
"POINT(9.940901,-84.07900599999999)","Autotransportes Caribeños"
"POINT(9.941751,-84.043699)","Parada de Buses Instalaciones Deportivas UCR"
"POINT(9.942956,-84.04229900000001)","Parada de Buses La Cosecha"
"POINT(9.943933,-84.03729599999997)","Parada de Buses Alhambra"
"POINT(9.944263,-84.03596299999998)","Parada de Buses BCR"
"POINT(9.944302,-84.06926199999998)","Calle Blancos - San José"
"POINT(9.945173,-84.06602299999997)","Calle Blancos - San José"
"POINT(9.945357,-84.03363300000001)","Parada de Buses Parque"
"POINT(9.948228,-84.061486)","Parada de Bus de Calle Blancos"
"POINT(9.948312,-84.06671900000003)","Parada de la Plaza de Calle Blancos"
"POINT(9.949119,-84.054978)","Parada Escuela Pilar Jimenez"
"POINT(9.949845,-84.07842800000003)","Caribeños"
"POINT(9.950015,-84.14485000000002)","Parada en la Tauro"
"POINT(9.950564,-84.03308800000002)","Parada de Buses Lomas de Tepeyac II"
"POINT(9.950865,-84.05947000000003)","Estacion de Buses Transvi"
"POINT(9.950945,-84.14807400000001)","Parada en Santa Fe"
"POINT(9.951256,-84.14776899999998)","Parada en la Plaza"
"POINT(9.951711,-84.07163100000002)","Parada de Buses El Encanto"
"POINT(9.952783,-84.148729)","Parada Ceras Jhonnson"
"POINT(9.953454,-84.15024199999999)","Parada Super Coronado"
"POINT(9.953988,-84.15137900000002)","Parada Finca San Juan"
"POINT(9.954786,-84.152736)","Parada La Ermita"
"POINT(9.955441,-84.15445299999999)","Parada Escuela Rincón Grande"
"POINT(9.955894,-84.04112399999997)","Purral-Mozotal-El Alto"
"POINT(9.956344,-84.15621199999998)","Parada San Gerardo"
"POINT(9.956873,-84.057931)","Los Colegios y Barrio Pilar"
"POINT(9.957084,-84.15769799999998)","Parada Colegio Rincon Grande"
"POINT(9.958093,-84.159742)","Parada El Higueron"
"POINT(9.95873,-84.09135600000002)","Terminal de Buses Coopana R.L."
"POINT(9.959166,-84.162263)","Parada Lomas"
"POINT(9.959628,-84.12192199999998)","El Solar"
"POINT(9.960523,-84.16432800000001)","Terminal de Buses Lomas del Rio"
"POINT(9.961004,-84.12840299999999)","Estación de Bus"
"POINT(9.96189,-84.078442)","Parada Iglesia de Tibas"
"POINT(9.962018,-84.06622299999998)","Parada Rostipollos"
"POINT(9.962132,-84.071011)","Parada Pali de Tibas"
"POINT(9.962223,-84.074386)","Parada McDonalds de Tibas"
"POINT(9.962265,-84.076168)","Parada Burger King de Tibas"
"POINT(9.962315,-84.06207999999998)","Parada Automercado"
"POINT(9.96269,-84.05947700000002)","Parada Centro Comercial Los Colegios"
"POINT(9.963388,-84.06520799999998)","Terminal de Autobuses Coopana R.L."
"POINT(9.966373,-84.08272)","San Juan - San Jose"
"POINT(9.968362,-84.11823700000002)","plantel empresa alfaro"
"POINT(9.978432,-84.18521199999998)","Parada de Buses de Belén y San Rafael de Alajuela"
"POINT(9.979438,-84.146613)","Zona Franca Metropolitana"
"POINT(9.985902,-84.106401)","La 400"
"POINT(9.987987,-84.15104100000002)","Parada Parque de La Aurora"
"POINT(9.988076,-84.18371000000002)","La Ribera"
"POINT(9.991217,-84.14915000000002)","Heredia"
"POINT(9.99196,-84.18275299999999)","La Ribera - El Guapinol"
"POINT(9.992594,-84.111021)","Microbuses rapidos heredianos"
"POINT(9.994736,-84.117414)","Buses de Getsemani"
"POINT(9.994942,-84.11729200000002)","Buses San Pablo- Heredia"
"POINT(9.937027,-84.079699)","Parada de Buses Tibas"
"POINT(9.941930000000001,-84.07845)","Calle Central Alfredo Volio, San José, Costa Rica"
"POINT(9.949580000000001,-84.07873000000001)", "
Calle Central, San José, Costa Rica 1"
"POINT(9.949580000000001,-84.07873000000001)","
Calle Central, San José, Costa Rica 2"
"POINT(9.95537,-84.07853)", "Calle Central, San José, Costa Rica 3"
"POINT(9.95724,-84.07845)", "Calle Central, San José, Costa Rica 4"
"POINT(9.95724,-84.07845)", "Calle 1, San Juan, Costa Rica"
"POINT(9.963170000000002,-84.07784000000001)", "Avenida 65, San Juan"
"POINT(9.9633,-84.08224000000001)", "Estadio Municipal Tibás"
"POINT(9.970360000000001,-84.08796000000001)", "Plaza Santo Domingo"
"POINT(9.994800000000001,-84.11334000000001)","Parque Santo Domingo"
"POINT(9.988581,-84.09838100000002)",Parada Mas X Menos San Pablo"
"POINT(9.999310000000001,-84.11249000000001)", "Universidad Nacional Heredia"
"POINT(9.933672,-84.074565)","Terminal de San Pedro"
"POINT(9.93232,-84.05993799999999)","Parada de la Antigua Subaru"
"POINT(9.935236,-84.05122499999999)","Parada de Desamparados y Aserrí"" 
"POINT(9.932802,-84.05692599999998)","Paradas del Mall San Pedro" 
"POINT(9.934612,-84.05197199999998)","Parada UCR - Calle Blancos" 
"POINT(9.938921,-84.05242399999997)","Parada Facultad de Letras" 
"POINT(9.940868,-84.04732899999999)","Parade de Buses UNED" 
"POINT(9.935358,-84.04770500000001)","Parada Calle Masis" 
"POINT(9.935409,-84.05015800000001)","Parada UCR-Tibás" 
"POINT(9.935479,-84.049533)","UCR-Heredia"
"POINT(9.935549,-84.05017099999998)","Ruta UCR-Alajuela"
"POINT(9.938593,-84.04860100000002)","Parada Facultad de Agronomia" 
"POINT(9.940652,-84.050614)","La Paulina Bus Stop"
"POINT(9.935536,-84.050231)","Parada de Autobuses UCR-Cartago" 
"POINT(9.931853,-84.04838899999999)","Parada Calle Real"
"POINT(9.939112,-84.05260599999997)","Parada Facultad de Letras" 
"POINT(9.937481,-84.054417)","Parada Facultad de Derecho" 
"POINT(9.932623,-84.05294600000002)","Parada del Parque" 
"POINT(9.934821,-84.051804)","Parada UCR-Pavas" 
"POINT(9.93506,-84.05091800000002)","Parada San José - Barrio Escalante"
"POINT(9.937069,-84.05403100000001)","Parada Facultad de Derecho" 
"POINT(9.932156,-84.05217700000003)","Parada del Outlet" 
"POINT(9.925693,-84.062791)","Bus Stop Zapote-Corte"
"POINT(9.936098,-84.04732999999999)","Parada Calle Masis"
"POINT(9.939563,-84.05383999999998)","Parada Escuela Betania"
"POINT(9.939594,-84.05252300000001)","Rotonda Montes de Oca"
"POINT(9.93252,-84.05722)","Parada Mall San Pedro Ida"